<?xml version="1.0" encoding="UTF-8"?>
<!DOCTYPE svg PUBLIC "-//W3C//DTD SVG 1.1//EN" "http://www.w3.org/Graphics/SVG/1.1/DTD/svg11.dtd">
<!-- Creator: CorelDRAW -->
<svg xmlns="http://www.w3.org/2000/svg" xml:space="preserve" width="4.1905mm" height="8.3811mm" style="shape-rendering:geometricPrecision; text-rendering:geometricPrecision; image-rendering:optimizeQuality; fill-rule:evenodd; clip-rule:evenodd"
viewBox="0 0 17.3293 34.659"
 xmlns:xlink="http://www.w3.org/1999/xlink">
 <defs>
  <style type="text/css">
   <![CDATA[
    .fil0 {fill:#4D4948}
   ]]>
  </style>
 </defs>
 <g id="Layer_x0020_1">
  <metadata id="CorelCorpID_0Corel-Layer"/>
  <polygon class="fil0" points="-0,0 3.05853,0 3.05853,34.659 -0,34.659 "/>
  <path class="fil0" d="M10.1941 17.3293l0 0c0,-1.96224 1.60577,-3.56759 3.56759,-3.56759l0.000413538 0c1.96182,0 3.56718,1.60535 3.56718,3.56759 0,1.96265 -1.60535,3.568 -3.56718,3.568l-0.000413538 0c-1.96182,0 -3.56759,-1.60535 -3.56759,-3.568z"/>
 </g>
</svg>
